DS202A- W07 Summative
…
Creating a column called ‘bmr_transition’ to assume the values ‘autocracy to democracy’ or ‘democracy to autocracy’. As ‘democracy_bmr’ is a binary variable in which ‘1’ indicates democracy and ‘0’ indicates autocracy, when ‘democracy_bmr’ is 1, which is greater than the lagged version of 0, it indicates a change from autocracy to democracy, and the inverse indicates a change from democracy to autocracy. When ‘democracy_bmr’ and ‘lag_democracy_bmr’ assume the same values the binary variable will be set to n/a. (step 2)

df_bmr_changed <-
  df %>%
  mutate(
    bmr_transition = case_when(
      democracy_bmr == 0 & lag_democracy_bmr == 1 ~ "democracy to autocracy",
      democracy_bmr == 1 & lag_democracy_bmr == 0 ~ "autocracy to democracy",
      TRUE ~ NA
    )
 )
df_bmr_changed

# A tibble: 8,808 × 321
    ...1  year country_isocode country_name share_female importance_weight
   <dbl> <dbl> <chr>           <chr>               <dbl>             <dbl>
 1     1  1966 AFG             Afghanistan          6.67              6.06
 2     2  1967 AFG             Afghanistan          6.67              6.06
 3     3  1968 AFG             Afghanistan          6.25              5.71
 4     4  1969 AFG             Afghanistan          5.88              5.41
 5     5  1970 AFG             Afghanistan          5.88              2.86
 6     6  1971 AFG             Afghanistan          5.88              2.86
 7     7  1972 AFG             Afghanistan          5.56              2.78
 8     8  1973 AFG             Afghanistan          0                 0   
 9     9  1974 AFG             Afghanistan          0                 0   
10    10  1975 AFG             Afghanistan          0                 0   
# ℹ 8,798 more rows
# ℹ 315 more variables: share_female_high <dbl>, democracy_bmr <dbl>,
#   bmr_new <dbl>, bmr_changed <dbl>, democracy_stock_bmr99 <dbl>,
#   democracy_stock_bmr95 <dbl>, democracy_stock_bmr90 <dbl>,
#   democracy_dd <dbl>, democracy_stock_dd99 <dbl>, democracy_stock_dd95 <dbl>,
#   democracy_stock_dd90 <dbl>, electoral <dbl>, v2lgfemleg <dbl>, poly <dbl>,
#   e_pelifeex <dbl>, v2xcl_rol <dbl>, v2xcl_prpty <dbl>, v2x_rule <dbl>, …

Here I am dropping the N/A values to include only rows that have experienced a change in regime. Therefore I believe this dataframe shall only include years which have undergone change. I am also filtering ‘df_bmr_changed’ to include only countries, years, and bmr_transition. (step 1 & 3)

df_bmr_changed <-
  df_bmr_changed %>% 
  select(country_name, year, bmr_transition) %>%
  arrange(year) %>%
  group_by(country_name)%>%
  drop_na()
df_bmr_changed

# A tibble: 151 × 3
# Groups:   country_name [75]
   country_name  year bmr_transition        
   <chr>        <dbl> <chr>                 
 1 Greece        1967 democracy to autocracy
 2 Sierra Leone  1967 democracy to autocracy
 3 Panama        1968 democracy to autocracy
 4 Peru          1968 democracy to autocracy
 5 Sudan         1969 democracy to autocracy
 6 Somalia       1969 democracy to autocracy
 7 Ghana         1970 autocracy to democracy
 8 Guatemala     1970 democracy to autocracy
 9 Honduras      1971 autocracy to democracy
10 Lebanon       1971 autocracy to democracy
# ℹ 141 more rows

Here is a tally of the number of regime changes by country (step 4).

df_bmr_changed %>% group_by(country_name) %>% tally()

# A tibble: 75 × 2
   country_name     n
   <chr>        <int>
 1 Albania          3
 2 Argentina        3
 3 Armenia          1
 4 Bangladesh       4
 5 Belarus          1
 6 Benin            2
 7 Bolivia          3
 8 Brazil           1
 9 Bulgaria         1
10 Burkina Faso     1
# ℹ 65 more rows
…
